# Exported from 3D Builder

newmtl White
Kd 1.000000 1.000000 1.000000

newmtl White
Kd 1.000000 1.000000 1.000000

newmtl White
Kd 1.000000 1.000000 1.000000

newmtl White
Kd 1.000000 1.000000 1.000000

newmtl White
Kd 1.000000 1.000000 1.000000

newmtl White
Kd 1.000000 1.000000 1.000000

newmtl White
Kd 1.000000 1.000000 1.000000

newmtl White
Kd 1.000000 1.000000 1.000000

newmtl White
Kd 1.000000 1.000000 1.000000

newmtl White
Kd 1.000000 1.000000 1.000000

newmtl White
Kd 1.000000 1.000000 1.000000

newmtl White
Kd 1.000000 1.000000 1.000000

newmtl White
Kd 1.000000 1.000000 1.000000

newmtl White
Kd 1.000000 1.000000 1.000000

newmtl White
Kd 1.000000 1.000000 1.000000

newmtl White
Kd 1.000000 1.000000 1.000000

newmtl White
Kd 1.000000 1.000000 1.000000

newmtl White
Kd 1.000000 1.000000 1.000000

newmtl White
Kd 1.000000 1.000000 1.000000

newmtl White
Kd 1.000000 1.000000 1.000000

newmtl White
Kd 1.000000 1.000000 1.000000

newmtl White
Kd 1.000000 1.000000 1.000000

newmtl White
Kd 1.000000 1.000000 1.000000

newmtl White
Kd 1.000000 1.000000 1.000000

newmtl White
Kd 1.000000 1.000000 1.000000

newmtl White
Kd 1.000000 1.000000 1.000000

newmtl White
Kd 1.000000 1.000000 1.000000

newmtl White
Kd 1.000000 1.000000 1.000000

newmtl White
Kd 1.000000 1.000000 1.000000

newmtl White
Kd 1.000000 1.000000 1.000000

newmtl White
Kd 1.000000 1.000000 1.000000

newmtl White
Kd 1.000000 1.000000 1.000000

newmtl White
Kd 1.000000 1.000000 1.000000

newmtl White
Kd 1.000000 1.000000 1.000000

newmtl White
Kd 1.000000 1.000000 1.000000

newmtl White
Kd 1.000000 1.000000 1.000000

newmtl White
Kd 1.000000 1.000000 1.000000

newmtl White
Kd 1.000000 1.000000 1.000000

newmtl White
Kd 1.000000 1.000000 1.000000

newmtl White
Kd 1.000000 1.000000 1.000000

newmtl White
Kd 1.000000 1.000000 1.000000

newmtl White
Kd 1.000000 1.000000 1.000000

newmtl White
Kd 1.000000 1.000000 1.000000

newmtl White
Kd 1.000000 1.000000 1.000000

newmtl White
Kd 1.000000 1.000000 1.000000

newmtl White
Kd 1.000000 1.000000 1.000000

newmtl White
Kd 1.000000 1.000000 1.000000

newmtl White
Kd 1.000000 1.000000 1.000000

newmtl White
Kd 1.000000 1.000000 1.000000

newmtl White
Kd 1.000000 1.000000 1.000000

newmtl White
Kd 1.000000 1.000000 1.000000

newmtl White
Kd 1.000000 1.000000 1.000000

newmtl White
Kd 1.000000 1.000000 1.000000

newmtl White
Kd 1.000000 1.000000 1.000000

newmtl White
Kd 1.000000 1.000000 1.000000

newmtl White
Kd 1.000000 1.000000 1.000000

newmtl White
Kd 1.000000 1.000000 1.000000

newmtl White
Kd 1.000000 1.000000 1.000000

newmtl White
Kd 1.000000 1.000000 1.000000

newmtl White
Kd 1.000000 1.000000 1.000000

newmtl White
Kd 1.000000 1.000000 1.000000

newmtl White
Kd 1.000000 1.000000 1.000000

newmtl White
Kd 1.000000 1.000000 1.000000

newmtl White
Kd 1.000000 1.000000 1.000000

newmtl White
Kd 1.000000 1.000000 1.000000

newmtl White
Kd 1.000000 1.000000 1.000000

newmtl White
Kd 1.000000 1.000000 1.000000

newmtl White
Kd 1.000000 1.000000 1.000000

newmtl White
Kd 1.000000 1.000000 1.000000

newmtl White
Kd 1.000000 1.000000 1.000000

newmtl White
Kd 1.000000 1.000000 1.000000

newmtl White
Kd 1.000000 1.000000 1.000000

newmtl White
Kd 1.000000 1.000000 1.000000

newmtl White
Kd 1.000000 1.000000 1.000000

newmtl White
Kd 1.000000 1.000000 1.000000

newmtl White
Kd 1.000000 1.000000 1.000000

newmtl White
Kd 1.000000 1.000000 1.000000

newmtl White
Kd 1.000000 1.000000 1.000000

newmtl White
Kd 1.000000 1.000000 1.000000

newmtl White
Kd 1.000000 1.000000 1.000000

newmtl White
Kd 1.000000 1.000000 1.000000

newmtl White
Kd 1.000000 1.000000 1.000000

newmtl White
Kd 1.000000 1.000000 1.000000

newmtl White
Kd 1.000000 1.000000 1.000000

newmtl White
Kd 1.000000 1.000000 1.000000

newmtl White
Kd 1.000000 1.000000 1.000000

newmtl White
Kd 1.000000 1.000000 1.000000

newmtl White
Kd 1.000000 1.000000 1.000000

newmtl White
Kd 1.000000 1.000000 1.000000

newmtl White
Kd 1.000000 1.000000 1.000000

newmtl White
Kd 1.000000 1.000000 1.000000

newmtl White
Kd 1.000000 1.000000 1.000000

newmtl White
Kd 1.000000 1.000000 1.000000

newmtl White
Kd 1.000000 1.000000 1.000000

newmtl White
Kd 1.000000 1.000000 1.000000

newmtl White
Kd 1.000000 1.000000 1.000000

newmtl White
Kd 1.000000 1.000000 1.000000

newmtl White
Kd 1.000000 1.000000 1.000000

newmtl White
Kd 1.000000 1.000000 1.000000

newmtl White
Kd 1.000000 1.000000 1.000000

newmtl White
Kd 1.000000 1.000000 1.000000

newmtl White
Kd 1.000000 1.000000 1.000000

newmtl White
Kd 1.000000 1.000000 1.000000

newmtl White
Kd 1.000000 1.000000 1.000000

newmtl White
Kd 1.000000 1.000000 1.000000

newmtl White
Kd 1.000000 1.000000 1.000000

newmtl White
Kd 1.000000 1.000000 1.000000

newmtl White
Kd 1.000000 1.000000 1.000000

newmtl White
Kd 1.000000 1.000000 1.000000

newmtl White
Kd 1.000000 1.000000 1.000000

newmtl White
Kd 1.000000 1.000000 1.000000

newmtl White
Kd 1.000000 1.000000 1.000000

newmtl White
Kd 1.000000 1.000000 1.000000

newmtl White
Kd 1.000000 1.000000 1.000000

newmtl White
Kd 1.000000 1.000000 1.000000

newmtl White
Kd 1.000000 1.000000 1.000000

newmtl White
Kd 1.000000 1.000000 1.000000

newmtl White
Kd 1.000000 1.000000 1.000000

newmtl White
Kd 1.000000 1.000000 1.000000

newmtl White
Kd 1.000000 1.000000 1.000000

newmtl White
Kd 1.000000 1.000000 1.000000

newmtl White
Kd 1.000000 1.000000 1.000000

newmtl White
Kd 1.000000 1.000000 1.000000

newmtl White
Kd 1.000000 1.000000 1.000000

newmtl White
Kd 1.000000 1.000000 1.000000

newmtl White
Kd 1.000000 1.000000 1.000000

newmtl White
Kd 1.000000 1.000000 1.000000

newmtl White
Kd 1.000000 1.000000 1.000000

newmtl White
Kd 1.000000 1.000000 1.000000

newmtl White
Kd 1.000000 1.000000 1.000000

newmtl White
Kd 1.000000 1.000000 1.000000

newmtl White
Kd 1.000000 1.000000 1.000000

newmtl White
Kd 1.000000 1.000000 1.000000

newmtl White
Kd 1.000000 1.000000 1.000000

newmtl White
Kd 1.000000 1.000000 1.000000

newmtl White
Kd 1.000000 1.000000 1.000000

newmtl White
Kd 1.000000 1.000000 1.000000

newmtl White
Kd 1.000000 1.000000 1.000000

newmtl White
Kd 1.000000 1.000000 1.000000

newmtl White
Kd 1.000000 1.000000 1.000000

newmtl White
Kd 1.000000 1.000000 1.000000

newmtl White
Kd 1.000000 1.000000 1.000000

newmtl White
Kd 1.000000 1.000000 1.000000

newmtl Gray
Kd 0.501961 0.501961 0.501961

newmtl White
Kd 1.000000 1.000000 1.000000

newmtl White
Kd 1.000000 1.000000 1.000000

newmtl White
Kd 1.000000 1.000000 1.000000

newmtl White
Kd 1.000000 1.000000 1.000000

newmtl White
Kd 1.000000 1.000000 1.000000

newmtl White
Kd 1.000000 1.000000 1.000000

newmtl White
Kd 1.000000 1.000000 1.000000

newmtl White
Kd 1.000000 1.000000 1.000000

newmtl White
Kd 1.000000 1.000000 1.000000

newmtl White
Kd 1.000000 1.000000 1.000000

newmtl White
Kd 1.000000 1.000000 1.000000

newmtl White
Kd 1.000000 1.000000 1.000000

newmtl White
Kd 1.000000 1.000000 1.000000

newmtl White
Kd 1.000000 1.000000 1.000000

newmtl White
Kd 1.000000 1.000000 1.000000

newmtl White
Kd 1.000000 1.000000 1.000000

newmtl White
Kd 1.000000 1.000000 1.000000

newmtl White
Kd 1.000000 1.000000 1.000000

newmtl White
Kd 1.000000 1.000000 1.000000

newmtl White
Kd 1.000000 1.000000 1.000000

newmtl White
Kd 1.000000 1.000000 1.000000

newmtl White
Kd 1.000000 1.000000 1.000000

newmtl White
Kd 1.000000 1.000000 1.000000

newmtl White
Kd 1.000000 1.000000 1.000000

newmtl White
Kd 1.000000 1.000000 1.000000

newmtl White
Kd 1.000000 1.000000 1.000000

newmtl White
Kd 1.000000 1.000000 1.000000

newmtl White
Kd 1.000000 1.000000 1.000000

newmtl White
Kd 1.000000 1.000000 1.000000

newmtl White
Kd 1.000000 1.000000 1.000000

newmtl White
Kd 1.000000 1.000000 1.000000

newmtl White
Kd 1.000000 1.000000 1.000000

newmtl White
Kd 1.000000 1.000000 1.000000

newmtl White
Kd 1.000000 1.000000 1.000000

newmtl White
Kd 1.000000 1.000000 1.000000

newmtl White
Kd 1.000000 1.000000 1.000000

newmtl White
Kd 1.000000 1.000000 1.000000

newmtl White
Kd 1.000000 1.000000 1.000000

newmtl White
Kd 1.000000 1.000000 1.000000

newmtl White
Kd 1.000000 1.000000 1.000000

newmtl White
Kd 1.000000 1.000000 1.000000

newmtl White
Kd 1.000000 1.000000 1.000000

newmtl White
Kd 1.000000 1.000000 1.000000

newmtl White
Kd 1.000000 1.000000 1.000000

newmtl White
Kd 1.000000 1.000000 1.000000

newmtl White
Kd 1.000000 1.000000 1.000000

newmtl White
Kd 1.000000 1.000000 1.000000

newmtl White
Kd 1.000000 1.000000 1.000000

newmtl White
Kd 1.000000 1.000000 1.000000

newmtl White
Kd 1.000000 1.000000 1.000000

newmtl White
Kd 1.000000 1.000000 1.000000

newmtl White
Kd 1.000000 1.000000 1.000000

newmtl White
Kd 1.000000 1.000000 1.000000

newmtl White
Kd 1.000000 1.000000 1.000000

newmtl White
Kd 1.000000 1.000000 1.000000

newmtl White
Kd 1.000000 1.000000 1.000000

newmtl White
Kd 1.000000 1.000000 1.000000

newmtl White
Kd 1.000000 1.000000 1.000000

newmtl White
Kd 1.000000 1.000000 1.000000

newmtl White
Kd 1.000000 1.000000 1.000000

newmtl White
Kd 1.000000 1.000000 1.000000

newmtl White
Kd 1.000000 1.000000 1.000000

newmtl White
Kd 1.000000 1.000000 1.000000

newmtl White
Kd 1.000000 1.000000 1.000000

newmtl White
Kd 1.000000 1.000000 1.000000

newmtl White
Kd 1.000000 1.000000 1.000000

newmtl White
Kd 1.000000 1.000000 1.000000

newmtl White
Kd 1.000000 1.000000 1.000000

newmtl White
Kd 1.000000 1.000000 1.000000

newmtl White
Kd 1.000000 1.000000 1.000000

newmtl White
Kd 1.000000 1.000000 1.000000

newmtl White
Kd 1.000000 1.000000 1.000000

newmtl White
Kd 1.000000 1.000000 1.000000

newmtl White
Kd 1.000000 1.000000 1.000000

newmtl White
Kd 1.000000 1.000000 1.000000

newmtl White
Kd 1.000000 1.000000 1.000000

newmtl White
Kd 1.000000 1.000000 1.000000

newmtl White
Kd 1.000000 1.000000 1.000000

newmtl White
Kd 1.000000 1.000000 1.000000

newmtl White
Kd 1.000000 1.000000 1.000000

newmtl White
Kd 1.000000 1.000000 1.000000

newmtl White
Kd 1.000000 1.000000 1.000000

newmtl White
Kd 1.000000 1.000000 1.000000

newmtl White
Kd 1.000000 1.000000 1.000000

newmtl White
Kd 1.000000 1.000000 1.000000

newmtl White
Kd 1.000000 1.000000 1.000000

newmtl White
Kd 1.000000 1.000000 1.000000

newmtl White
Kd 1.000000 1.000000 1.000000

newmtl White
Kd 1.000000 1.000000 1.000000

newmtl White
Kd 1.000000 1.000000 1.000000

newmtl White
Kd 1.000000 1.000000 1.000000

newmtl White
Kd 1.000000 1.000000 1.000000

newmtl White
Kd 1.000000 1.000000 1.000000

newmtl White
Kd 1.000000 1.000000 1.000000

newmtl White
Kd 1.000000 1.000000 1.000000

newmtl White
Kd 1.000000 1.000000 1.000000

newmtl White
Kd 1.000000 1.000000 1.000000

newmtl White
Kd 1.000000 1.000000 1.000000

newmtl White
Kd 1.000000 1.000000 1.000000

newmtl White
Kd 1.000000 1.000000 1.000000

newmtl White
Kd 1.000000 1.000000 1.000000

newmtl White
Kd 1.000000 1.000000 1.000000

newmtl White
Kd 1.000000 1.000000 1.000000

newmtl White
Kd 1.000000 1.000000 1.000000

newmtl White
Kd 1.000000 1.000000 1.000000

newmtl White
Kd 1.000000 1.000000 1.000000

newmtl White
Kd 1.000000 1.000000 1.000000

newmtl White
Kd 1.000000 1.000000 1.000000

newmtl White
Kd 1.000000 1.000000 1.000000

newmtl White
Kd 1.000000 1.000000 1.000000

newmtl White
Kd 1.000000 1.000000 1.000000

newmtl White
Kd 1.000000 1.000000 1.000000

newmtl White
Kd 1.000000 1.000000 1.000000

newmtl White
Kd 1.000000 1.000000 1.000000

newmtl White
Kd 1.000000 1.000000 1.000000

newmtl White
Kd 1.000000 1.000000 1.000000

newmtl White
Kd 1.000000 1.000000 1.000000

newmtl White
Kd 1.000000 1.000000 1.000000

newmtl White
Kd 1.000000 1.000000 1.000000

newmtl White
Kd 1.000000 1.000000 1.000000

newmtl White
Kd 1.000000 1.000000 1.000000

newmtl White
Kd 1.000000 1.000000 1.000000

newmtl White
Kd 1.000000 1.000000 1.000000

newmtl White
Kd 1.000000 1.000000 1.000000

newmtl White
Kd 1.000000 1.000000 1.000000

newmtl White
Kd 1.000000 1.000000 1.000000

newmtl White
Kd 1.000000 1.000000 1.000000

newmtl White
Kd 1.000000 1.000000 1.000000

newmtl White
Kd 1.000000 1.000000 1.000000

newmtl White
Kd 1.000000 1.000000 1.000000

newmtl White
Kd 1.000000 1.000000 1.000000

newmtl White
Kd 1.000000 1.000000 1.000000

newmtl White
Kd 1.000000 1.000000 1.000000

newmtl White
Kd 1.000000 1.000000 1.000000

newmtl White
Kd 1.000000 1.000000 1.000000

newmtl White
Kd 1.000000 1.000000 1.000000

newmtl White
Kd 1.000000 1.000000 1.000000

newmtl White
Kd 1.000000 1.000000 1.000000

newmtl White
Kd 1.000000 1.000000 1.000000

newmtl White
Kd 1.000000 1.000000 1.000000

newmtl White
Kd 1.000000 1.000000 1.000000

newmtl White
Kd 1.000000 1.000000 1.000000

newmtl White
Kd 1.000000 1.000000 1.000000

newmtl White
Kd 1.000000 1.000000 1.000000

newmtl White
Kd 1.000000 1.000000 1.000000

newmtl White
Kd 1.000000 1.000000 1.000000

newmtl White
Kd 1.000000 1.000000 1.000000

newmtl White
Kd 1.000000 1.000000 1.000000

newmtl White
Kd 1.000000 1.000000 1.000000

newmtl White
Kd 1.000000 1.000000 1.000000

newmtl White
Kd 1.000000 1.000000 1.000000

newmtl White
Kd 1.000000 1.000000 1.000000

newmtl White
Kd 1.000000 1.000000 1.000000

newmtl White
Kd 1.000000 1.000000 1.000000

newmtl White
Kd 1.000000 1.000000 1.000000

newmtl White
Kd 1.000000 1.000000 1.000000

newmtl White
Kd 1.000000 1.000000 1.000000

newmtl White
Kd 1.000000 1.000000 1.000000

newmtl White
Kd 1.000000 1.000000 1.000000

newmtl White
Kd 1.000000 1.000000 1.000000

newmtl White
Kd 1.000000 1.000000 1.000000

newmtl White
Kd 1.000000 1.000000 1.000000

newmtl White
Kd 1.000000 1.000000 1.000000

newmtl White
Kd 1.000000 1.000000 1.000000

newmtl White
Kd 1.000000 1.000000 1.000000

newmtl White
Kd 1.000000 1.000000 1.000000

newmtl White
Kd 1.000000 1.000000 1.000000

newmtl White
Kd 1.000000 1.000000 1.000000

newmtl White
Kd 1.000000 1.000000 1.000000

newmtl White
Kd 1.000000 1.000000 1.000000

newmtl White
Kd 1.000000 1.000000 1.000000

newmtl White
Kd 1.000000 1.000000 1.000000

newmtl White
Kd 1.000000 1.000000 1.000000

newmtl White
Kd 1.000000 1.000000 1.000000

newmtl White
Kd 1.000000 1.000000 1.000000

newmtl White
Kd 1.000000 1.000000 1.000000

newmtl White
Kd 1.000000 1.000000 1.000000

newmtl White
Kd 1.000000 1.000000 1.000000

newmtl White
Kd 1.000000 1.000000 1.000000

newmtl White
Kd 1.000000 1.000000 1.000000

newmtl White
Kd 1.000000 1.000000 1.000000

newmtl White
Kd 1.000000 1.000000 1.000000

newmtl White
Kd 1.000000 1.000000 1.000000

newmtl White
Kd 1.000000 1.000000 1.000000

newmtl White
Kd 1.000000 1.000000 1.000000

newmtl White
Kd 1.000000 1.000000 1.000000

newmtl White
Kd 1.000000 1.000000 1.000000

newmtl White
Kd 1.000000 1.000000 1.000000

newmtl White
Kd 1.000000 1.000000 1.000000

newmtl White
Kd 1.000000 1.000000 1.000000

newmtl White
Kd 1.000000 1.000000 1.000000

newmtl White
Kd 1.000000 1.000000 1.000000

newmtl White
Kd 1.000000 1.000000 1.000000

newmtl White
Kd 1.000000 1.000000 1.000000

newmtl White
Kd 1.000000 1.000000 1.000000

newmtl White
Kd 1.000000 1.000000 1.000000

newmtl White
Kd 1.000000 1.000000 1.000000

newmtl White
Kd 1.000000 1.000000 1.000000

newmtl White
Kd 1.000000 1.000000 1.000000

newmtl White
Kd 1.000000 1.000000 1.000000

newmtl White
Kd 1.000000 1.000000 1.000000

newmtl White
Kd 1.000000 1.000000 1.000000

newmtl White
Kd 1.000000 1.000000 1.000000

newmtl White
Kd 1.000000 1.000000 1.000000

newmtl White
Kd 1.000000 1.000000 1.000000

newmtl White
Kd 1.000000 1.000000 1.000000

newmtl White
Kd 1.000000 1.000000 1.000000

newmtl White
Kd 1.000000 1.000000 1.000000

newmtl White
Kd 1.000000 1.000000 1.000000

newmtl White
Kd 1.000000 1.000000 1.000000

newmtl White
Kd 1.000000 1.000000 1.000000

newmtl White
Kd 1.000000 1.000000 1.000000

newmtl White
Kd 1.000000 1.000000 1.000000

newmtl White
Kd 1.000000 1.000000 1.000000

newmtl White
Kd 1.000000 1.000000 1.000000

newmtl White
Kd 1.000000 1.000000 1.000000

newmtl White
Kd 1.000000 1.000000 1.000000

newmtl White
Kd 1.000000 1.000000 1.000000

newmtl White
Kd 1.000000 1.000000 1.000000

newmtl White
Kd 1.000000 1.000000 1.000000

newmtl White
Kd 1.000000 1.000000 1.000000

newmtl White
Kd 1.000000 1.000000 1.000000

newmtl White
Kd 1.000000 1.000000 1.000000

newmtl White
Kd 1.000000 1.000000 1.000000

newmtl White
Kd 1.000000 1.000000 1.000000

newmtl White
Kd 1.000000 1.000000 1.000000

newmtl White
Kd 1.000000 1.000000 1.000000

newmtl White
Kd 1.000000 1.000000 1.000000

newmtl White
Kd 1.000000 1.000000 1.000000

newmtl White
Kd 1.000000 1.000000 1.000000

newmtl White
Kd 1.000000 1.000000 1.000000

newmtl White
Kd 1.000000 1.000000 1.000000

newmtl White
Kd 1.000000 1.000000 1.000000

newmtl White
Kd 1.000000 1.000000 1.000000

newmtl White
Kd 1.000000 1.000000 1.000000

newmtl White
Kd 1.000000 1.000000 1.000000

newmtl White
Kd 1.000000 1.000000 1.000000

newmtl White
Kd 1.000000 1.000000 1.000000

newmtl White
Kd 1.000000 1.000000 1.000000

newmtl White
Kd 1.000000 1.000000 1.000000

newmtl White
Kd 1.000000 1.000000 1.000000

newmtl White
Kd 1.000000 1.000000 1.000000

newmtl White
Kd 1.000000 1.000000 1.000000

newmtl White
Kd 1.000000 1.000000 1.000000

newmtl White
Kd 1.000000 1.000000 1.000000

newmtl White
Kd 1.000000 1.000000 1.000000

newmtl White
Kd 1.000000 1.000000 1.000000

newmtl White
Kd 1.000000 1.000000 1.000000

newmtl White
Kd 1.000000 1.000000 1.000000

newmtl White
Kd 1.000000 1.000000 1.000000

newmtl White
Kd 1.000000 1.000000 1.000000

newmtl White
Kd 1.000000 1.000000 1.000000

newmtl White
Kd 1.000000 1.000000 1.000000

newmtl White
Kd 1.000000 1.000000 1.000000

newmtl White
Kd 1.000000 1.000000 1.000000

newmtl White
Kd 1.000000 1.000000 1.000000

newmtl White
Kd 1.000000 1.000000 1.000000

newmtl White
Kd 1.000000 1.000000 1.000000

newmtl White
Kd 1.000000 1.000000 1.000000

newmtl White
Kd 1.000000 1.000000 1.000000

newmtl White
Kd 1.000000 1.000000 1.000000

newmtl White
Kd 1.000000 1.000000 1.000000

newmtl White
Kd 1.000000 1.000000 1.000000

newmtl White
Kd 1.000000 1.000000 1.000000

newmtl White
Kd 1.000000 1.000000 1.000000

newmtl White
Kd 1.000000 1.000000 1.000000

newmtl White
Kd 1.000000 1.000000 1.000000

newmtl White
Kd 1.000000 1.000000 1.000000

newmtl White
Kd 1.000000 1.000000 1.000000

newmtl White
Kd 1.000000 1.000000 1.000000

newmtl White
Kd 1.000000 1.000000 1.000000

newmtl White
Kd 1.000000 1.000000 1.000000

newmtl White
Kd 1.000000 1.000000 1.000000

newmtl White
Kd 1.000000 1.000000 1.000000

newmtl White
Kd 1.000000 1.000000 1.000000

newmtl White
Kd 1.000000 1.000000 1.000000

newmtl White
Kd 1.000000 1.000000 1.000000

newmtl White
Kd 1.000000 1.000000 1.000000

newmtl White
Kd 1.000000 1.000000 1.000000

newmtl White
Kd 1.000000 1.000000 1.000000

newmtl White
Kd 1.000000 1.000000 1.000000

newmtl White
Kd 1.000000 1.000000 1.000000

newmtl White
Kd 1.000000 1.000000 1.000000

newmtl White
Kd 1.000000 1.000000 1.000000

newmtl White
Kd 1.000000 1.000000 1.000000

newmtl White
Kd 1.000000 1.000000 1.000000

newmtl White
Kd 1.000000 1.000000 1.000000

newmtl White
Kd 1.000000 1.000000 1.000000

newmtl White
Kd 1.000000 1.000000 1.000000

newmtl White
Kd 1.000000 1.000000 1.000000

newmtl White
Kd 1.000000 1.000000 1.000000

newmtl White
Kd 1.000000 1.000000 1.000000

newmtl White
Kd 1.000000 1.000000 1.000000

newmtl White
Kd 1.000000 1.000000 1.000000

newmtl White
Kd 1.000000 1.000000 1.000000

newmtl White
Kd 1.000000 1.000000 1.000000

newmtl White
Kd 1.000000 1.000000 1.000000

newmtl White
Kd 1.000000 1.000000 1.000000

newmtl White
Kd 1.000000 1.000000 1.000000

newmtl White
Kd 1.000000 1.000000 1.000000

newmtl White
Kd 1.000000 1.000000 1.000000

newmtl White
Kd 1.000000 1.000000 1.000000

newmtl White
Kd 1.000000 1.000000 1.000000

newmtl White
Kd 1.000000 1.000000 1.000000

newmtl White
Kd 1.000000 1.000000 1.000000

newmtl White
Kd 1.000000 1.000000 1.000000

newmtl White
Kd 1.000000 1.000000 1.000000

newmtl White
Kd 1.000000 1.000000 1.000000

newmtl White
Kd 1.000000 1.000000 1.000000

newmtl White
Kd 1.000000 1.000000 1.000000

newmtl White
Kd 1.000000 1.000000 1.000000

newmtl White
Kd 1.000000 1.000000 1.000000

newmtl White
Kd 1.000000 1.000000 1.000000

newmtl White
Kd 1.000000 1.000000 1.000000

newmtl White
Kd 1.000000 1.000000 1.000000

newmtl White
Kd 1.000000 1.000000 1.000000

newmtl White
Kd 1.000000 1.000000 1.000000

newmtl White
Kd 1.000000 1.000000 1.000000

newmtl White
Kd 1.000000 1.000000 1.000000

newmtl White
Kd 1.000000 1.000000 1.000000

newmtl White
Kd 1.000000 1.000000 1.000000

newmtl White
Kd 1.000000 1.000000 1.000000

newmtl White
Kd 1.000000 1.000000 1.000000

newmtl White
Kd 1.000000 1.000000 1.000000

newmtl White
Kd 1.000000 1.000000 1.000000

newmtl White
Kd 1.000000 1.000000 1.000000

newmtl White
Kd 1.000000 1.000000 1.000000

newmtl White
Kd 1.000000 1.000000 1.000000

newmtl White
Kd 1.000000 1.000000 1.000000

newmtl White
Kd 1.000000 1.000000 1.000000

newmtl White
Kd 1.000000 1.000000 1.000000

newmtl White
Kd 1.000000 1.000000 1.000000

newmtl White
Kd 1.000000 1.000000 1.000000

newmtl White
Kd 1.000000 1.000000 1.000000

newmtl White
Kd 1.000000 1.000000 1.000000

newmtl White
Kd 1.000000 1.000000 1.000000

newmtl White
Kd 1.000000 1.000000 1.000000

newmtl White
Kd 1.000000 1.000000 1.000000

newmtl White
Kd 1.000000 1.000000 1.000000

newmtl White
Kd 1.000000 1.000000 1.000000

newmtl White
Kd 1.000000 1.000000 1.000000

newmtl White
Kd 1.000000 1.000000 1.000000

newmtl White
Kd 1.000000 1.000000 1.000000

newmtl White
Kd 1.000000 1.000000 1.000000

newmtl White
Kd 1.000000 1.000000 1.000000

newmtl White
Kd 1.000000 1.000000 1.000000

newmtl White
Kd 1.000000 1.000000 1.000000

newmtl White
Kd 1.000000 1.000000 1.000000

newmtl White
Kd 1.000000 1.000000 1.000000

newmtl White
Kd 1.000000 1.000000 1.000000

newmtl White
Kd 1.000000 1.000000 1.000000

newmtl White
Kd 1.000000 1.000000 1.000000

newmtl White
Kd 1.000000 1.000000 1.000000

newmtl White
Kd 1.000000 1.000000 1.000000

newmtl White
Kd 1.000000 1.000000 1.000000

newmtl White
Kd 1.000000 1.000000 1.000000

newmtl White
Kd 1.000000 1.000000 1.000000

newmtl White
Kd 1.000000 1.000000 1.000000

newmtl White
Kd 1.000000 1.000000 1.000000

newmtl White
Kd 1.000000 1.000000 1.000000

newmtl White
Kd 1.000000 1.000000 1.000000

newmtl White
Kd 1.000000 1.000000 1.000000
