%YAML 1.1
%TAG !u! tag:unity3d.com,2011:
--- !u!1045 &1
EditorBuildSettings:
  m_ObjectHideFlags: 0
  serializedVersion: 2
  m_Scenes:
  - enabled: 0
    path: Assets/Scenes/MainScene.unity
    guid: e7b07e73ec638984cb7170eb3345b351
  - enabled: 1
    path: Assets/Scenes/RADAR.unity
    guid: 00bd10f9dcd20dc469821212b31385b0
  m_configObjects: {}
