# Rhino
newmtl diffuse_0
Ka 0.0000 0.0000 0.0000
Kd 0.9020 0.9020 0.9020
Ks 1.0000 1.0000 1.0000
Tf 0.0000 0.0000 0.0000
d 1.0000
Ns 0.0000
newmtl diffuse_Black
Ka 0.0000 0.0000 0.0000
Kd 0.0000 0.0000 0.0000
Ks 1.0000 1.0000 1.0000
Tf 0.0000 0.0000 0.0000
d 1.0000
Ns 0.0000
